<?xml version="1.0" encoding="UTF-8"?>
<svg width="16px" height="16px" viewBox="0 0 16 16" version="1.1" xmlns="http://www.w3.org/2000/svg" xmlns:xlink="http://www.w3.org/1999/xlink">
    <!-- Generator: Sketch 48.2 (47327) - http://www.bohemiancoding.com/sketch -->
    <title>icon/calendar-dark</title>
    <desc>Created with Sketch.</desc>
    <defs></defs>
    <g id="button/calendar" stroke="none" stroke-width="1" fill="none" fill-rule="evenodd" transform="translate(-32.000000, -14.000000)">
        <g id="Group" transform="translate(32.000000, 13.000000)" stroke="#FFFFFF">
            <g id="icon/calendar-light" transform="translate(0.000000, 1.000000)">
                <path d="M2.5,2.5 L2.5,3.5 L13.5,3.5 L13.5,2.5 L2.5,2.5 Z M1.5,14.5 L1.5,1.5 L14.5,1.5 L14.5,14.5 L1.5,14.5 Z M15,1.5 L13.5,1.5 L13.5,1 C13.5,0.723857625 13.2761424,0.5 13,0.5 C12.7238576,0.5 12.5,0.723857625 12.5,1 L12.5,1.5 L3.5,1.5 L3.5,1 C3.5,0.723857625 3.27614237,0.5 3,0.5 C2.72385763,0.5 2.5,0.723857625 2.5,1 L2.5,1.5 L1,1.5 C0.731861229,1.5 0.5,1.74842275 0.5,2.07142857 L0.5,14.9285714 C0.5,15.2515773 0.731861229,15.5 1,15.5 L15,15.5 C15.2681388,15.5 15.5,15.2515773 15.5,14.9285714 L15.5,2.07142857 C15.5,1.74842275 15.2681388,1.5 15,1.5 Z M4,5.5 C3.72385763,5.5 3.5,5.72385763 3.5,6 L3.5,8 C3.5,8.27614237 3.72385763,8.5 4,8.5 L6,8.5 C6.27614237,8.5 6.5,8.27614237 6.5,8 L6.5,6 C6.5,5.72385763 6.27614237,5.5 6,5.5 L4,5.5 Z" id="Rectangle-2-Copy"></path>
            </g>
        </g>
    </g>
</svg>